{
    "wallpaper": "https://www.dmoe.cc/random.php",
    "spider": "./custom_spider.jar",
    "lives": [{
		    "name": "live",
            "playerType":"1",
		    "type": 0,
		    "url": "https://agit.ai/Yoursmile7/TVBox/raw/branch/master/live.txt",
		    "epg": "http://epg.51zmt.top:8000/api/diyp/?ch={name}&date={date}",
		    "logo": "https://epg.112114.xyz/logo/{name}.png"
	    }],
    "sites": [
	 {
			"key": "js加密_仓库通用",
			"name": "直播转点播",
			"type": 3,
			"api": "./lives/直播转点播.js",
			"ext": "./lives/直播仓库.json"
	 },
	  /*{
	    "key":"drpy_js_Alist",
	    "name":"DR| Alist[js]",
	    "type":3,
	    "api":"./dr_js/lib/alist.min.js",
	    "ext":"./dr_js/alist.json"
	  },*/

       {
      "key": "AList",
      "name": "AList",
      "type": 3,
      "api": "csp_AList",
      "searchable": 1,
      "changeable": 0,
      "ext": "./fm/alist.json",
      "jar": "./fm/custom_spider.jar"
    },
        /*{
            "key": "drpy_js_豆瓣",
            "name": "聚合|豆瓣[DRPY]",
            "type": 3,
            "api": "./dr_js/lib/drpy2.min.js",
            "ext": "./dr_js/js/豆瓣.js"
        },
        */
       {
        "key": "If_js_douban",
        "name": "豆瓣┃If_douban",
        "type": 3,
        "searchable": 0,
        "quickSearch": 0,
        "filterable": 1,
        "api": "./dr_js/js/lf_douban1_min.js"
         },
        {
            "key": "drpy_js_360影视",
            "name": "官源|360[DRPY]",
            "type": 3,
            "api": "./dr_js/lib/drpy2.min.js",
            "ext": "./dr_js/js/360影视.js"
        },
        {
            "key": "drpy_js_菜狗",
            "name": "官源|搜狗[DRPY]",
            "type": 3,
            "api": "./dr_js/lib/drpy2.min.js",
            "ext": "./dr_js/js/菜狗.js"
        },
        {
            "key": "drpy_js_奇珍异兽",
            "name": "官源|奇艺[DRPY]",
            "type": 3,
            "api": "./dr_js/lib/drpy2.min.js",
            "ext": "./dr_js/js/奇珍异兽.js"
        },
        {
            "key": "drpy_js_优酷",
            "name": "官源|优酷[DRPY]",
            "type": 3,
            "api": "./dr_js/lib/drpy2.min.js",
            "ext": "./dr_js/js/优酷.js"
        },
        {
            "key": "drpy_js_腾云驾雾",
            "name": "官源|腾讯[DRPY]",
            "type": 3,
            "api": "./dr_js/lib/drpy2.min.js",
            "ext": "./dr_js/js/腾云驾雾.js"
        },
        {
            "key": "drpy_js_百忙无果",
            "name": "官源|芒果[DRPY]",
            "type": 3,
            "api": "./dr_js/lib/drpy2.min.js",
            "ext": "./dr_js/js/百忙无果.js"
        },
    {
      "key": "WebDAV",
      "name": "FM|WebDAV",
      "type": 3,
      "api": "csp_WebDAV",
      "searchable": 1,
      "filterable": 1,
      "changeable": 0,
      "ext": "./fm/webdav.json",
      "jar": "./fm/custom_spider.jar"
    },
    /*{ 
     "key": "紙條",
     "name": "FM|紙條",
     "type": 3,
     "api": "csp_Paper",
     "searchable": 1,
     "filterable": 1,
     "changeable": 0,
     "ext": "http://127.0.0.1:9978/file/XYQTVBox/alitoken.txt",
     "jar": "./fm/custom_spider.jar" 
     },
    { 
    "key": "易搜",
    "name": "FM|易搜",
    "type": 3,
    "api": "csp_YiSo",
    "searchable": 1,
    "filterable": 0,
    "changeable": 0,
    "ext": "http://127.0.0.1:9978/file/XYQTVBox/alitoken.txt",
    "jar": "./fm/custom_spider.jar"
    },   */ 
    {
    "key": "盤搜",
    "name": "FM|盤搜",
    "type": 3,
    "api": "csp_PanSou",
    "searchable": 1,
    "filterable": 0,
    "changeable": 0,
    "ext": "http://127.0.0.1:9978/file/XYQTVBox/alitoken.txt",
    "jar": "./fm/custom_spider.jar"
    },    
    {
    "key": "UP雲搜",
    "name": "FM|UP雲搜",
    "type": 3,
    "api": "csp_UpYun",
    "searchable": 1,
    "filterable": 0,
    "changeable": 0,
    "ext": "http://127.0.0.1:9978/file/XYQTVBox/alitoken.txt",
    "jar": "./fm/custom_spider.jar"
    },    
    { 
    "key": "找資源",
    "name": "FM|找資源",
    "type": 3,
    "api": "csp_Zhaozy",
    "searchable": 1,
    "filterable": 0,
    "changeable": 0,
    "ext": "http://127.0.0.1:9978/file/XYQTVBox/alitoken.txt$$$zzygh$$$zzygh",
    "jar": "./fm/custom_spider.jar"
    },
    {
      "key": "七夜",
      "name": "FM|七夜",
      "type": 3,
      "api": "csp_Dovx",
      "searchable": 1,
      "filterable": 0,
      "changeable": 0,
      "ext": "http://127.0.0.1:9978/file/XYQTVBox/alitoken.txt",
      "jar": "./fm/custom_spider.jar"
    },
	{
      "key": "盤搜索",
      "name": "FM|盤搜索",
      "type": 3,
      "api": "csp_PanSearch",
      "searchable": 1,
      "filterable": 0,
      "changeable": 0,
      "ext": "http://127.0.0.1:9978/file/XYQTVBox/alitoken.txt",
      "jar": "./fm/custom_spider.jar"
    },
      {
      "key": "玩偶",
      "name": "玩偶",
      "type": 3,
      "api": "csp_Wogg",
      "searchable": 1,
      "changeable": 0,
      "ext": "http://127.0.0.1:9978/file/XYQTVBox/alitoken.txt",
      "jar": "./fm/custom_spider.jar"
    },

        {"key":"Gitcafe","name":"📀小纸条","type":3,"api":"csp_Gitcafe","searchable":1,"quickSearch":1,"filterable":1,"ext":"http://127.0.0.1:9978/file/XYQTVBox/alitoken.txt" ,  "jar": "./custom_spider.jar"  },
        {"key":"csp_Zhaozy","name":"📀找资源","type":3,"api":"csp_Zhaozy","searchable":1,"quickSearch":1,"filterable":0,"ext":"http://127.0.0.1:9978/file/XYQTVBox/alitoken.txt",  "jar": "./custom_spider.jar" },
        {"key":"csp_AliPS","name":"📀喵狸盘搜","type":3,"api":"csp_AliPS","searchable":1,"quickSearch":1,"filterable":0,"ext":"http://127.0.0.1:9978/file/XYQTVBox/alitoken.txt, “ ",  "jar": "./custom_spider.jar" },
        {"key":"csp_Yisou","name":"📀易搜","type":3,"api":"csp_Yisou","searchable":1,"quickSearch":1,"filterable":0,"ext":"http://127.0.0.1:9978/file/XYQTVBox/alitoken.txt",  "jar": "./custom_spider.jar" },
        {"key":"csp_Upyunso","name":"📀UP云搜","type":3,"api":"csp_Upyunso","searchable":1,"quickSearch":1,"filterable":0,"ext":"http://127.0.0.1:9978/file/XYQTVBox/alitoken.txt",  "jar": "./custom_spider.jar" },
        {"key": "csp_XYQHiker_土狗搜索","name":"📀土狗搜索(XYQH)","type":3,"api":"csp_XYQHiker","searchable":1,"quickSearch":1,"filterable":1,"ext":"./XYQHiker/土狗搜索.json"},
        {"key": "csp_XYQHiker_DOVX搜索","name":"📀DOVX搜索(XYQH)","type":3,"api":"csp_XYQHiker","playerType":1,"searchable":1,"quickSearch":1,"filterable":1,"ext":"./XYQHiker/DOVX搜索.json"},
        {"key": "csp_XYQBiu_云盘分享","name":"📀云盘分享(XYQ)","type":3,"api":"csp_XYQBiu","playerType":1,"searchable":1,"quickSearch":1,"filterable":1,"ext":"./XYQBiu/云盘分享.json"},
        {"key": "csp_XYQHiker_盘搜索","name":"📀盘搜索(XYQH)","type":3,"api":"csp_XYQHiker","playerType":1,"searchable":1,"quickSearch":1,"filterable":1,"ext":"./XYQHiker/盘搜索.json"},
        {"key": "csp_XYQHiker_玩偶哥哥","name": "📀玩偶哥哥(XYQH)","type": 3,"api": "csp_XYQHikerAL","searchable": 1,"quickSearch": 1,"filterable": 1,"ext": "./XYQHiker/玩偶哥哥.json"},
        {"key": "csp_XYQHiker_豆豆飞","name": "📀豆豆飞(XYQH)","type": 3,"api": "csp_XYQHikerAL","searchable": 1,"quickSearch": 1,"filterable": 1,"ext": "./XYQHiker/豆豆飞.json"},
        {"key": "csp_XYQHiker_阿里小站","name": "📀阿里小站(XYQH)","type": 3,"api": "csp_XYQHikerAL","searchable": 1,"quickSearch": 1,"filterable": 1,"ext": "./XYQHiker/阿里小站.json"},
        {"key": "csp_XYQHiker_云盘分享","name": "📀云盘分享(XYQH)","type": 3,"api": "csp_XYQHikerAL","searchable": 1,"quickSearch": 1,"filterable": 1,"ext": "./XYQHiker/云盘分享.json"},
        {"key": "csp_XYQHiker_校长影视","name": "📀校长影视(XYQH)","type": 3,"api": "csp_XYQHikerAL","searchable": 1,"quickSearch": 1,"filterable": 1,"ext": "./XYQHiker/校长.json"},
		{"key": "csp_XYQHiker_土拨鼠搜索","name":"📀土拨鼠(搜索)","type":3,"api":"csp_XYQHiker","playerType":1,"searchable":1,"quickSearch":1,"filterable":1,"ext":"./XYQHiker/土拨鼠搜索.json"},
		{"key": "csp_XYQHikerAL_4KHDR","name":"📀🧲4KHDR(盘/磁)","type":3,"api":"csp_XYQHikerAL","playerType":1,"searchable":0,"quickSearch":0,"filterable":1,"ext":"./XYQHiker/4KHDR.json"},
		{"key": "csp_XYQHikerAL_阿里云盘网","name":"📀阿里云盘(搜索)","type":3,"api":"csp_XYQHikerAL","playerType":1,"searchable":1,"quickSearch":1,"filterable":1,"ext":"./XYQHiker/阿里云盘网.json"},
        {"key": "csp_XYQHikerAL_呆瓜鸡","name":"📀呆瓜鸡","type":3,"api":"csp_XYQHikerAL","playerType":1,"searchable":1,"quickSearch":1,"filterable":1,"ext":"./XYQHiker/呆瓜鸡.json"},
		/*{"key": "csp_XYQHikerAL_柒月吧","name":"📀柒月吧","type":3,"api":"csp_XYQHikerAL","playerType":1,"searchable":1,"quickSearch":1,"filterable":1,"ext":"./XYQHiker/柒月吧.json"},*/
		{"key": "csp_XYQHikerAL_人人阿里","name":"📀人人阿里","type":3,"api":"csp_XYQHikerAL","playerType":1,"searchable":1,"quickSearch":1,"filterable":1,"ext":"./XYQHiker/人人阿里.json"},
        {"key": "csp_XYQHikerAL_橘子盘搜","name":"📀橘子盘搜","type":3,"api":"csp_XYQHikerAL","playerType":1,"searchable":1,"quickSearch":1,"filterable":1,"ext":"./XYQHiker/橘子盘搜.json"},
        {"key": "csp_XYQBiu_口袋阿里","name":"📀口袋阿里(XYQ)","type":3,"api":"csp_XYQBiu","playerType":1,"searchable":1,"quickSearch":1,"filterable":1,"ext":"./XYQBiu/口袋阿里.json"},
         {"key": "csp_XYQHikerAL_4k影视小站","name":"📀4K影视小站","type":3,"api":"csp_XYQHikerAL","playerType":1,"searchable":1,"quickSearch":1,"filterable":1,"ext":"./XYQHiker/4K影视小站.json"},
{"key":"csp_Kunyu77","name":"SP|七七","type":3,"api":"csp_Kunyu77","searchable":1,"quickSearch":1,"filterable":1},
{"key":"csp_Ikanbot","name": "Ikanbot","type": 3,"api": "csp_Ikanbot","searchable": 1,"quickSearch": 1,"filterable": 1},
{"key": "csp_Mp4Mov","name": "🧲Mp4电影","type": 3,"api": "csp_Mp4Mov","searchable": 1,"quickSearch": 1,"filterable": 1},
{"key":"csp_JianPian","name":"🔨荐片","type":3,"api":"csp_JianPian","playerType":1,"searchable":1,"quickSearch":1,"filterable":1},
{"key": "csp_New6v","name": "🧲新6V","type": 3,"api": "csp_New6v","searchable": 1,"quickSearch": 1,"filterable": 1,"ext":"http://www.xb6v.com"},
{"key":"csp_SeedHub","name":"🧲SeedHub","type":3,"api":"csp_SeedHub","playerType":1,"searchable":1,"quickSearch":1,"filterable":1},
{"key":"csp_KubaCL","name":"🧲酷吧电影","type":3,"api":"csp_KubaCL","playerType":1,"searchable":1,"quickSearch":1,"filterable":1},
{"key":"csp_MeijuTT","name":"🧲美剧天堂","type":3,"api":"csp_MeijuTT","playerType":1,"searchable":1,"quickSearch":1,"filterable":1},
{"key":"csp_MeijuMi","name":"🧲美剧迷","type":3,"api":"csp_MeijuMi","playerType":1,"searchable":1,"quickSearch":1,"filterable":1},
{"key":"小苹果","name":"SP|苹果","type":3,"api":"csp_LiteApple","playerType":1,"searchable":1,"quickSearch":1},
{"key":"快看","name":"SP|快看","type":3,"api":"csp_Kuaikan","searchable":1,"quickSearch":1,"filterable":1},
{"key":"csp_Bd","name":"SP|哔嘀","type":3,"api":"csp_Bdys01","searchable":1,"quickSearch":1,"filterable":1},
{"key":"csp_Czsapp","name":"SP|厂长","type":3,"api":"csp_Czsapp","playerType":2,"searchable":1,"quickSearch":1,"filterable":1,"ext":"https://czzy.fun"},
{"key":"csp_DiDuan","name":"SP|低端","type":3,"api":"csp_Ddys","searchable":1,"quickSearch":1,"filterable":1},
{"key":"csp_SP360","name":"SP|360","type":3,"api":"csp_SP360","searchable":1,"quickSearch":1,"filterable":1},
{"key":"csp_Dm84","name":"SP|巴士","type":3,"api":"csp_Dm84","searchable":1,"quickSearch":1,"filterable":1,"jar":"./fm/custom_spider.jar"},
{"key": "csp_Ysj","name": "SP|异界","type": 3,"api": "csp_Ysj","searchable": 1,"quickSearch": 1,"filterable": 1,"jar":"./fm/custom_spider.jar"},
{"key":"Ying","name":"SP|樱花","type":3,"api":"csp_Ying","searchable":1,"quickSearch":1,"filterable":1,"jar":"./fm/custom_spider.jar"},
/*{
            "key": "世界杯",
            "name": "SP|一起",
            "type": "3",
            "api": "csp_Dora",
            "searchable": "1",
            "quickSearch": "1",
            "filterable": "1",
            "ext": "8e3aefcba838d8dc5102ac786719d837",
            "jar": "./Tangs/tang.jar"
        },
        {
            "key": "Hei19",
            "name": "SP|石榴",
            "type": "3",
            "api": "csp_Dora",
            "searchable": "1",
            "quickSearch": "1",
            "filterable": "1",
            "ext": "3bff500c8b1e06c052a1b0f1f7a62b45",
            "jar": "./Tangs/tang.jar"
        },
        {
            "key": "Lgyy",
            "name": "SP|蓝光",
            "type": "3",
            "api": "csp_Dora",
            "searchable": "1",
            "quickSearch": "1",
            "filterable": "1",
            "ext": "b2e573ff040fcd54b50475660ee1a7d1",
            "jar": "./Tangs/tang.jar"
        },
        {
            "key": "Smdyy",
            "name": "SP|神马",
            "type": "3",
            "api": "csp_Dora",
            "searchable": "1",
            "quickSearch": "1",
            "filterable": "1",
            "ext": "16705ee9f4764be8499806f52d4bf1e7",
            "jar": "./Tangs/tang.jar"
        },
        {
            "key": "Cokemv",
            "name": "SP|可乐",
            "type": "3",
            "api": "csp_Dora",
            "searchable": "1",
            "quickSearch": "1",
            "filterable": "1",
            "ext": "b88de1329655cca1beba45aa9776de70",
            "jar": "./Tangs/tang.jar"
        },
        {
            "key": "Dy555",
            "name": "SP|555",
            "type": "3",
            "api": "csp_Dora",
            "searchable": "1",
            "quickSearch": "1",
            "filterable": "1",
            "ext": "f41992bd740145ed58cb212dc0876582",
            "jar": "./Tangs/tang.jar"
        },
        {
            "key": "Zxzj",
            "name": "SP|在线",
            "type": "3",
            "api": "csp_Dora",
            "searchable": "1",
            "quickSearch": "1",
            "filterable": "1",
            "ext": "23a412dda32885ae2bcb97b956cd7ad4",
            "jar": "./Tangs/tang.jar"
        },
        {
            "key": "Lib",
            "name": "SP|Libvio",
            "type": "3",
            "api": "csp_Dora",
            "searchable": "1",
            "quickSearch": "1",
            "filterable": "1",
            "ext": "78d057e4d03e47cb62dce13d69b41d6f",
            "jar": "./Tangs/tang.jar"
        },*/
        {"key":"csp_Yj1211","name":"SP|JustLive","type":3,"api":"csp_Yj1211","searchable":1,"quickSearch":1,"filterable":1},
        {"key":"csp_Bili","name":"SP|哔哩哔哩","type":3,"api":"csp_Bili","searchable":1,"quickSearch":1,"filterable":1,"ext":"https://ghproxy.com/https://raw.githubusercontent.com/nimenkeyijiaowogouhaoya/Gouhao_box/master/XYQTVBox/bili/Bili.json"},
        {"key":"csp_Bili幼儿","name":"SP|哔哩幼儿","type":3,"api":"csp_Bili","searchable":0,"quickSearch":0,"filterable":1,"ext":"https://ghproxy.com/https://raw.githubusercontent.com/nimenkeyijiaowogouhaoya/Gouhao_box/master/XYQTVBox/bili/%E5%B9%BC%E5%84%BF%E4%B9%90%E5%9B%AD.json"},
        {"key":"csp_Bili少儿","name":"SP|哔哩少儿","type": 3,"api": "csp_Bili","searchable": 0,"quickSearch": 0,"filterable": 1,"ext":"https://ghproxy.com/https://raw.githubusercontent.com/nimenkeyijiaowogouhaoya/Gouhao_box/master/XYQTVBox/bili/%E5%B0%91%E5%84%BF%E6%95%99%E8%82%B2.json"},
        {"key":"csp_Bili小学","name":"SP|哔哩小学","type": 3,"api": "csp_Bili","searchable": 0,"quickSearch": 0,"filterable": 1,"ext":"https://ghproxy.com/https://raw.githubusercontent.com/nimenkeyijiaowogouhaoya/Gouhao_box/master/XYQTVBox/bili/%E5%B0%8F%E5%AD%A6%E8%AF%BE%E5%A0%82.json"},
        {"key":"csp_Bili初中","name":"SP|哔哩初中","type": 3,"api": "csp_Bili","searchable": 0,"quickSearch": 0,"filterable": 1,"ext":"https://ghproxy.com/https://raw.githubusercontent.com/nimenkeyijiaowogouhaoya/Gouhao_box/master/XYQTVBox/bili/%E5%88%9D%E4%B8%AD%E8%AF%BE%E5%A0%82.json"},
        {"key":"csp_Bili高中","name":"SP|哔哩高中","type": 3,"api": "csp_Bili","searchable": 0,"quickSearch": 0,"filterable": 1,"ext":"https://ghproxy.com/https://raw.githubusercontent.com/nimenkeyijiaowogouhaoya/Gouhao_box/master/XYQTVBox/bili/%E9%AB%98%E4%B8%AD%E8%AF%BE%E5%A0%82.json"},
        {"key":"相声小品","name":"SP|哔哩相声","type":3,"api":"csp_Bili","searchable":0,"quickSearch":0,"filterable":1,"ext":"https://ghproxy.com/https://raw.githubusercontent.com/nimenkeyijiaowogouhaoya/Gouhao_box/master/XYQTVBox/bili/Blixs.json"},
        {"key": "戏 曲" ,"name": "SP|哔哩戏曲","type":3,"api":"csp_Bili","searchable":0,"quickSearch":0,"filterable":1,"ext":"https://ghproxy.com/https://raw.githubusercontent.com/nimenkeyijiaowogouhaoya/Gouhao_box/master/XYQTVBox/bili/Blixq.json"},
        {
         "key": "csp_appys_多米",
         "name": "多米",
         "type": 3,
         "api": "csp_AppYsV2",
         "searchable": 1,
         "quickSearch": 1,
         "filterable": 1,
         "ext": "http://v.dmdh.top/api.php/app/"
        },
        {
         "key": "csp_appys_freeok",
         "name": "freeok",
         "type": 3,
         "api": "csp_AppYsV2",
         "searchable": 1,
         "quickSearch": 1,
         "filterable": 1,
         "ext": "https://www.freeok.vip/api.php/app/"
        },
		{
			"key": "暴风",
			"name": "暴风",
			"type": 1,
			"api": "http://bfzy.tv/api.php/provide/vod",
			"searchable": 1,
			"quickSearch": 1
		},
        {
            "key": "drpy_js_次元城动漫",
            "name": "次元城动漫[DRPY]",
            "type": 3,
            "api": "./dr_js/lib/drpy2.min.js",
            "ext": "./dr_js/js/次元城动漫.js"
        },{
            "key": "drpy_js_宝片视频",
            "name": "宝片[DRPY]",
            "type": 3,
            "api": "./dr_js/lib/drpy2.min.js",
            "ext": "./dr_js/js/宝片视频.js"
        },{
            "key": "drpy_js_荐片",
            "name": "荐片[DRPY]",
            "type": 3,
            "api": "./dr_js/lib/drpy2.min.js",
            "ext": "./dr_js/js/荐片.js"
        },
        {
            "key": "csp_XYQHiker_4kGod",
            "name": "4kGod(XYQH)",
            "type": 3,
            "api": "csp_XYQHiker",
            "searchable": 1,
            "quickSearch": 1,
            "filterable": 1,
            "ext": "./XYQHiker/4kGod.json"
        },
         {
            "key": "csp_XYQHiker_猫放时光",
            "name": "猫放时光(XYQH)",
            "type": 3,
            "api": "csp_XYQHiker",
            "searchable": 1,
            "quickSearch": 1,
            "filterable": 1,
            "ext": "./XYQHiker/猫放时光.json"
        },
        {
            "key": "csp_XYQHiker_影咖",
            "name": "影咖(XYQH)",
            "type": 3,
            "api": "csp_XYQHiker",
            "searchable": 1,
            "quickSearch": 1,
            "filterable": 1,
            "ext": "./XYQHiker/影咖.json"
        },/*{
            "key": "csp_XYQHiker_片库网",
            "name": "片库网(XYQH)",
            "type": 3,
            "api": "csp_XYQHiker",
            "searchable": 1,
            "quickSearch": 1,
            "filterable": 1,
            "ext": "./XYQHiker/片库网.json"
        },*/{
            "key": "csp_XYQHiker_囧次元",
            "name": "囧次元(XYQH)",
            "type": 3,
            "api": "csp_XYQHiker",
            "searchable": 1,
            "quickSearch": 1,
            "filterable": 1,
            "ext": "./XYQHiker/囧次元.json"
        },
        {
            "key": "csp_XYQHiker_喵物次元",
            "name": "喵物次元(XYQH)",
            "type": 3,
            "api": "csp_XYQHiker",
            "searchable": 1,
            "quickSearch": 1,
            "filterable": 1,
            "ext": "./XYQHiker/喵物次元.json"
        },
        {
            "key": "csp_XYQHiker_yoifun",
            "name": "yoifun(XYQH)",
            "type": 3,
            "api": "csp_XYQHiker",
            "searchable": 1,
            "quickSearch": 1,
            "filterable": 1,
            "ext": "./XYQHiker/yoifun.json"
        },
        {
            "key": "csp_XYQHiker_端木影视",
            "name": "端木影视(XYQH)",
            "type": 3,
            "api": "csp_XYQHiker",
            "searchable": 1,
            "quickSearch": 1,
            "filterable": 1,
            "ext": "./XYQHiker/端木影视.json"
        },
        {
            "key": "csp_XYQHiker_jojo",
            "name": "jojo(XYQH)",
            "type": 3,
            "api": "csp_XYQHiker",
            "searchable": 1,
            "quickSearch": 1,
            "filterable": 1,
            "ext": "./XYQHiker/jojo.json"
        },
        {
            "key": "csp_XYQHiker_蛋蛋剧",
            "name": "蛋蛋剧(XYQH)",
            "type": 3,
            "api": "csp_XYQHiker",
            "searchable": 1,
            "quickSearch": 1,
            "filterable": 1,
            "ext": "./XYQHiker/蛋蛋剧.json"
        },
       /*{
           "key": "熊熊",
           "name": "熊熊",
           "type": 1,
           "api": "https://v.3412.net.cn/macapi.php/provide/vod",
           "playUrl": "https://player.3412.net.cn/?url=",
           "searchable": 1,
           "changeable": 1
       },*/
       {
            "key": "csp_XYQBiu_磁力熊",
            "name": "磁力熊(XYQ)",
            "type": 3,
            "api": "csp_XYQBiu",
            "searchable": 0,
            "quickSearch": 0,
            "filterable": 0,
            "ext": "./XYQBiu/磁力熊.json"
        },
        {
            "key": "csp_XYQHiker_异世琳琅",
            "name": "异世琳琅(XYQH)",
            "type": 3,
            "api": "csp_XYQHiker",
            "searchable": 1,
            "quickSearch": 1,
            "filterable": 1,
            "ext": "./XYQHiker/异世琳琅.json"
        },{
            "key": "csp_XYQHiker_一龙影视",
            "name": "一龙影视(XYQH)",
            "type": 3,
            "api": "csp_XYQHiker",
            "searchable": 1,
            "quickSearch": 1,
            "filterable": 1,
            "ext": "./XYQHiker/一龙影视.json"
        },
          {
            "key": "csp_XYQHiker_看看剧",
            "name": "看看剧(XYQH)",
            "type": 3,
            "api": "csp_XYQHiker",
            "searchable": 1,
            "quickSearch": 1,
            "filterable": 1,
            "ext": "./XYQHiker/看看剧.json"
        },
        {
            "key": "csp_XYQHiker_茶杯狐",
            "name": "茶杯狐(XYQH)",
            "type": 3,
            "api": "csp_XYQHiker",
            "searchable": 1,
            "quickSearch": 1,
            "filterable": 1,
            "ext": "./XYQHiker/茶杯狐.json"
        },{
            "key": "csp_XYQHiker_电影盒子",
            "name": "电影盒子(XYQH)",
            "type": 3,
            "api": "csp_XYQHiker",
            "searchable": 1,
            "quickSearch": 1,
            "filterable": 1,
            "ext": "./XYQHiker/电影盒子.json"
        }
        ,{
            "key": "csp_XYQHiker_港剧云播",
            "name": "港剧云播(XYQH)",
            "type": 3,
            "api": "csp_XYQHiker",
            "searchable": 1,
            "quickSearch": 1,
            "filterable": 1,
            "ext": "./XYQHiker/港剧云播.json"
        },
        {
            "key": "csp_XYQHiker_柒之社",
            "name": "柒子社(XYQH)",
            "type": 3,
            "api": "csp_XYQHiker",
            "searchable": 1,
            "quickSearch": 1,
            "filterable": 1,
            "ext": "https://ghproxy.com/https://raw.githubusercontent.com/nimenkeyijiaowogouhaoya/Gouhao_box/master/XYQTVBox/XYQHiker/%E6%9F%92%E4%B9%8B%E7%A4%BE.json"
        },
       {
            "key": "csp_XYQHiker_次元动漫",
            "name": "次元动漫(XYQH)",
            "type": 3,
            "api": "csp_XYQHiker",
            "searchable": 1,
            "quickSearch": 1,
            "filterable": 1,
            "ext": "https://ghproxy.com/https://raw.githubusercontent.com/nimenkeyijiaowogouhaoya/Gouhao_box/master/XYQTVBox/XYQHiker/%E6%AC%A1%E5%85%83%E5%8A%A8%E6%BC%AB.json"
        },
                {
            "key": "csp_XYQHiker_风车动漫",
            "name": "风车动漫(XYQH)",
            "type": 3,
            "api": "csp_XYQHiker",
            "searchable": 1,
            "quickSearch": 1,
            "filterable": 1,
            "ext": "https://ghproxy.com/https://raw.githubusercontent.com/nimenkeyijiaowogouhaoya/Gouhao_box/master/XYQTVBox/XYQHiker/%E9%A3%8E%E8%BD%A6%E5%8A%A8%E6%BC%AB.json"
        },
        
        {
            "key": "csp_XYQHiker_风车动漫1",
            "name": "风车动漫1💧(XYQH)",
            "type": 3,
            "api": "csp_XYQHiker",
            "searchable": 1,
            "quickSearch": 1,
            "filterable": 1,
            "ext": "https://ghproxy.com/https://raw.githubusercontent.com/nimenkeyijiaowogouhaoya/Gouhao_box/master/XYQTVBox/XYQHiker/%E9%A3%8E%E8%BD%A6%E5%8A%A8%E6%BC%AB1.json"
        },
                {
            "key": "csp_XYQHiker_橘子动漫",
            "name": "橘子动漫(XYQH)",
            "type": 3,
            "api": "csp_XYQHiker",
            "searchable": 1,
            "quickSearch": 1,
            "filterable": 1,
            "ext": "https://ghproxy.com/https://raw.githubusercontent.com/nimenkeyijiaowogouhaoya/Gouhao_box/master/XYQTVBox/XYQHiker/%E6%A9%98%E5%AD%90%E5%8A%A8%E6%BC%AB.json"
        },
        {
            "key": "csp_XYQHiker_66影视",
            "name": "66影视(XYQH)",
            "type": 3,
            "api": "csp_XYQHiker",
            "searchable": 1,
            "quickSearch": 1,
            "filterable": 1,
            "ext": "./XYQHiker/66影视.json"
        },{
            "key": "csp_XYQHiker_AcgNya",
            "name": "AcgNya(XYQH)",
            "type": 3,
            "api": "csp_XYQHiker",
            "searchable": 1,
            "quickSearch": 1,
            "filterable": 1,
            "ext": "./XYQHiker/AcgNya.json"
        },{
            "key": "csp_XYQHiker_番剧",
            "name": "番剧(XYQH)",
            "type": 3,
            "api": "csp_XYQHiker",
            "searchable": 1,
            "quickSearch": 1,
            "filterable": 1,
            "ext": "./XYQHiker/番剧.json"
        },{
            "key": "csp_XYQHiker_elfun",
            "name": "elfun(XYQH)",
            "type": 3,
            "api": "csp_XYQHiker",
            "searchable": 1,
            "quickSearch": 1,
            "filterable": 1,
            "ext": "./XYQHiker/elfun.json"
        },
       
        {
            "key": "csp_XYQHiker_Moefun",
            "name": "Moefun(XYQH)",
            "type": 3,
            "api": "csp_XYQHiker",
            "searchable": 1,
            "quickSearch": 1,
            "filterable": 1,
            "ext": "./XYQHiker/Moefun.json"
        },
        /*{
            "key": "csp_XYQHiker_嗷呜番",
            "name": "嗷呜番(XYQH)",
            "type": 3,
            "api": "csp_XYQHiker",
            "searchable": 1,
            "quickSearch": 1,
            "filterable": 1,
            "ext": "./XYQHiker/嗷呜番.json"
        },
*/
        {
            "key": "csp_XYQHiker_不可视境界线",
            "name": "不可视境界线(XYQH)",
            "type": 3,
            "api": "csp_XYQHiker",
            "searchable": 1,
            "quickSearch": 1,
            "filterable": 1,
            "ext": "./XYQHiker/不可视境界线.json"
        },
        {
            "key": "csp_XYQHiker_HG影视",
            "name": "HG影视(XYQH)",
            "type": 3,
            "api": "csp_XYQHiker",
            "searchable": 1,
            "quickSearch": 1,
            "filterable": 1,
            "ext": "./XYQHiker/HG影视.json"
        },
        {
            "key": "csp_XYQHiker_咕咕番",
            "name": "咕咕番(XYQH)",
            "type": 3,
            "api": "csp_XYQHiker",
            "searchable": 1,
            "quickSearch": 1,
            "filterable": 1,
            "ext": "./XYQHiker/咕咕番.json"
        },
        {
            "key": "csp_XYQHiker_出差番",
            "name": "出差番(XYQH)",
            "type": 3,
            "api": "csp_XYQHiker",
            "searchable": 1,
            "quickSearch": 1,
            "filterable": 1,
            "ext": "./XYQHiker/出差番.json"
        },
        /*{
            "key": "csp_XYQHiker_可达鸭",
            "name": "可达鸭(XYQH)",
            "type": 3,
            "api": "csp_XYQHiker",
            "searchable": 1,
            "quickSearch": 1,
            "filterable": 1,
            "ext": "./XYQHiker/可达鸭.json"
        },*/
                

        {
            "key": "csp_XYQHiker_蓝猫动漫",
            "name": "蓝猫动漫(XYQH)",
            "type": 3,
            "api": "csp_XYQHiker",
            "searchable": 1,
            "quickSearch": 1,
            "filterable": 1,
            "ext": "./XYQHiker/蓝猫动漫.json"
        },
        {
            "key": "csp_XYQHiker_趣动漫",
            "name": "趣动漫(XYQH)",
            "type": 3,
            "api": "csp_XYQHiker",
            "searchable": 1,
            "quickSearch": 1,
            "filterable": 1,
            "ext": "./XYQHiker/趣动漫.json"
        },
        {
            "key": "csp_XYQHiker_Mutefun",
            "name": "Mutefun(XYQH)",
            "type": 3,
            "api": "csp_XYQHiker",
            "searchable": 1,
            "quickSearch": 1,
            "filterable": 1,
            "ext": "./XYQHiker/Mutefun.json"
        },
        {
            "key": "csp_XYQHiker_热播之家",
            "name": "热播之家(XYQH)",
            "type": 3,
            "api": "csp_XYQHiker",
            "searchable": 1,
            "quickSearch": 1,
            "filterable": 1,
            "ext": "./XYQHiker/热播之家.json"
        },
        {
            "key": "csp_XYQHiker_鸭奈飞影视",
            "name": "鸭奈飞影视(XYQH)",
            "type": 3,
            "api": "csp_XYQHiker",
            "searchable": 1,
            "quickSearch": 1,
            "filterable": 1,
            "ext": "./XYQHiker/鸭奈飞影视.json"
        },
        {
            "key": "csp_XYQHiker_皮皮泡",
            "name": "皮皮泡(XYQH)",
            "type": 3,
            "api": "csp_XYQHiker",
            "searchable": 1,
            "quickSearch": 1,
            "filterable": 1,
            "ext": "./XYQHiker/皮皮泡.json"
        },
        {
            "key": "csp_XYQHiker_追剧达人",
            "name": "追剧达人(XYQH)",
            "type": 3,
            "api": "csp_XYQHiker",
            "searchable": 1,
            "quickSearch": 1,
            "filterable": 1,
            "ext": "./XYQHiker/追剧达人.json"
        },
        {
            "key": "csp_XYQHiker_农民影视",
            "name": "农民影视(XYQH)",
            "type": 3,
            "api": "csp_XYQHiker",
            "searchable": 1,
            "quickSearch": 1,
            "filterable": 1,
            "ext": "./XYQHiker/农民影视.json"
        },
        {
            "key": "csp_XYQHiker_乐猪影视",
            "name": "乐猪影视(XYQH)",
            "type": 3,
            "api": "csp_XYQHiker",
            "searchable": 1,
            "quickSearch": 1,
            "filterable": 1,
            "ext": "./XYQHiker/乐猪TV.json"
        },
        {
            "key": "csp_XYQHiker_素白白影视",
            "name": "素白白影视(XYQH)",
            "type": 3,
            "api": "csp_XYQHiker",
            "searchable": 1,
            "quickSearch": 1,
            "filterable": 1,
            "ext": "./XYQHiker/素白白影视.json"
        },
        {
            "key": "csp_XYQBiu_蛋蛋赞",
            "name": "蛋蛋赞(XYQ)",
            "type": 3,
            "api": "csp_XYQBiu",
            "searchable": 1,
            "quickSearch": 1,
            "filterable": 0,
            "ext": "./XYQBiu/蛋蛋赞.json"
        },

        {
            "key": "csp_XYQBiu_斗鱼直播",
            "name": "斗鱼直播(XYQ)",
            "type": 3,
            "api": "csp_XYQBiu",
            "searchable": 1,
            "quickSearch": 1,
            "filterable": 0,
            "ext": "./XYQBiu/斗鱼直播.json"
        },
        {
            "key": "csp_XYQHiker_虎牙直播",
            "name": "虎牙直播(XYQH)",
            "type": 3,
            "api": "csp_XYQHiker",
            "searchable": 1,
            "quickSearch": 0,
            "filterable": 0,
            "ext": "./XYQHiker/虎牙直播.json"
        },
        {
            "key": "csp_XYQBiu_网易CC直播",
            "name": "网易CC直播(XYQ)",
            "type": 3,
            "api": "csp_XYQBiu",
            "searchable": 0,
            "quickSearch": 0,
            "filterable": 0,
            "ext": "./XYQBiu/网易CC直播.json"
        },
        {
            "key": "csp_XYQBiu_310直播",
            "name": "310直播(XYQ)",
            "type": 3,
            "api": "csp_XYQBiu",
            "searchable": 0,
            "quickSearch": 0,
            "filterable": 0,
            "ext": "./XYQBiu/310直播.json"
        },
        {
            "key": "csp_XYQBiu_抓饭直播",
            "name": "抓饭直播(XYQ)",
            "type": 3,
            "api": "csp_XYQBiu",
            "searchable": 0,
            "quickSearch": 0,
            "filterable": 0,
            "ext": "./XYQBiu/抓饭直播.json"
        },
        {
            "key": "csp_XYQHiker_无插件直播",
            "name": "无插件直播(XYQH)",
            "type": 3,
            "api": "csp_XYQHiker",
            "searchable": 0,
            "quickSearch": 0,
            "filterable": 0,
            "ext": "./XYQHiker/无插件直播.json"
        },
        {
            "key": "drpy_js_斗鱼直播",
            "name": "斗鱼直播[DRPY]",
            "type": 3,
            "api": "./dr_js/lib/drpy2.min.js",
            "ext": "./dr_js/js/斗鱼直播.js"
        },
        {
            "key": "drpy_js_虎牙直播",
            "name": "虎牙直播[DRPY]",
            "type": 3,
            "api": "./dr_js/lib/drpy2.min.js",
            "ext": "./dr_js/js/虎牙直播.js"
        },
        {
            "key": "drpy_js_JustLive",
            "name": "JustLive[DRPY]",
            "type": 3,
            "api": "./dr_js/lib/drpy2.min.js",
            "ext": "./dr_js/js/JustLive.js"
        },
        {
            "key": "drpy_js_哔哩直播",
            "name": "哔哩直播[DRPY]",
            "type": 3,
            "api": "./dr_js/lib/drpy2.min.js",
            "ext": "./dr_js/js/哔哩直播.js"
        },
		{
			"key": "1080资源库",
			"name": "影视|1080库",
			"type": 1,
			"api": "https://api.1080zyku.com/inc/api_mac10.php",
			"searchable": 1,
			"quickSearch": 1
		},
		{
			"key": "量子影视",
			"name": "影视|量子影视",
			"type": 1,
			"api": "http://cj.lziapi.com/api.php/provide/vod/",
			"searchable": 1,
			"quickSearch": 1,
			"m3u8ads":"hd.youyhn.com",
			"playerType":2
		},
		{
			"key": "非凡",
			"name": "影视|非凡资源",
			"type": 1,
			"api": "http://cj.ffzyapi.com/api.php/provide/vod/",
			"searchable": 1,
			"quickSearch": 1,
			"m3u8ads":"hd.youyhn.com",
			"playerType":2
		},
		{
			"key": "红牛影视",
			"name": "影视|红牛影视",
			"type": 1,
			"api": "https://www.hongniuzy2.com/api.php/provide/vod/",
			"searchable": 1,
			"quickSearch": 1
		},
        {
            "key" : "py_douban",
            "name" : "py_豆瓣",
            "type" : 3,
            "api" : "py_douban",
            "searchable" : 1,
            "quickSearch" : 1,
            "filterable" : 1,
            "ext" : "./dr_py/py/py_douban.py"
        },
        {
            "key": "py_kunyu77",
            "name": "py_酷云77",
            "type": 3,
            "api": "py_kunyu77",
            "searchable": 1,
            "quickSearch": 1,
            "filterable": 0,
            "ext": "./dr_py/py/py_kunyu77.py"
        },
        {
            "key": "py_jrskbs",
            "name": "py_jrskbs",
            "type": 3,
            "api": "py_jrskbs",
            "searchable": 1,
            "quickSearch": 1,
            "filterable": 0,
            "ext": "./dr_py/py/py_jrskbs.py"
        },
        {
            "key" : "py_qie",
            "name" : "py_企鹅体育",
            "type" : 3,
            "api" : "py_qie",
            "searchable" : 1,
            "quickSearch" : 1,
            "filterable" : 1,
            "ext" : "./dr_py/py/py_qie.py"
        },
        {
            "key": "py_huya",
            "name": "py_虎牙",
            "type": 3,
            "api": "py_huya",
            "searchable": 1,
            "quickSearch": 1,
            "filterable": 0,
            "ext": "./dr_py/py/py_huya.py"
        },
        {
            "key": "py_douyu",
            "name": "py_斗鱼",
            "type": 3,
            "api": "py_douyu",
            "searchable": 1,
            "quickSearch": 1,
            "filterable": 0,
            "ext": "./dr_py/py/py_douyu.py"
        },
        {
            "key": "py_gimytv",
            "name": "py_剧迷",
            "type": 3,
            "api": "py_gimytv",
            "searchable": 1,
            "quickSearch": 1,
            "filterable": 0,
            "ext": "./dr_py/py/py_gimytv.py"
        },
        {
            "key": "py_genmov",
            "name": "py_我爱跟剧",
            "type": 3,
            "api": "py_genmov",
            "searchable": 1,
            "quickSearch": 1,
            "filterable": 0,
            "ext": "./dr_py/py/py_genmov.py"
        },
        {
            "key": "py_czspp",
            "name": "py_厂长",
            "type": 3,
            "api": "py_czspp",
            "searchable": 1,
            "quickSearch": 1,
            "filterable": 0,
            "ext": "./dr_py/py/py_czspp.py"
        },
        {
            "key": "py_ikan",
            "name": "py_爱看",
            "type": 3,
            "api": "py_ikan",
            "searchable": 1,
            "quickSearch": 1,
            "filterable": 0,
            "ext": "./dr_py/py/py_ikan.py"
        },
        {
        "key" : "py_zxzj",
        "name" : "py_在线之家",
        "type" : 3,
        "api" : "py_zxzj",
        "searchable" : 1,
        "quickSearch" : 1,
        "filterable" : 1,
        "ext" : "./dr_py/py/py_zxzj.py"
        },
        {
        "key":"py_wmkk",
        "name":"py_️完美看看",
        "type":3,
        "api":"py_wmkk",
        "searchable":1,
        "quickSearch":1,
        "filterable":1,
        "ext":"./dr_py/py/py_wmkk.py"
        },
        {
        "key" : "py_cyys",
        "name" : "py_创艺影视",
        "type" : 3,
        "api" : "py_cyys",
        "searchable" : 1,
        "quickSearch" : 1,
        "filterable" : 1,
        "ext" : "./dr_py/py/py_cyys.py"
        },
{"key" : "py_yixi","name" : "py_一席视频","type" : 3,"api" : "py_yixi","searchable" : 1,"quickSearch" : 1,"filterable" : 1,"ext" : "./dr_py/py/py_yixi.py"},
{"key" : "py_baiying","name" : "py_百影视频","type" : 3,"api" : "py_baiying","searchable" : 1,"quickSearch" : 1,"filterable" : 1,"ext" : "./dr_py/py/py_baiying.py"},
{"key" : "py_cokemv","name" : "py_cokemv","type" : 3,"api" : "py_cokemv","searchable" : 1,"quickSearch" : 1,"filterable" : 1,"ext" : "./dr_py/py/py_cokemv.py"},
{"key" : "py_lezhu","name" : "py_乐猪影视","type" : 3,"api" : "py_lezhu","searchable" : 1,"quickSearch" : 1,"filterable" : 1,"ext" : "./dr_py/py/py_lezhu.py"},
        {
            "key": "py_xmly",
            "name": "py_喜马拉雅",
            "type": 3,
            "api": "py_xmly",
            "searchable": 1,
            "quickSearch": 1,
            "filterable": 0,
            "ext": "./dr_py/py/py_xmly.py"
        },
        {
            "key": "py_cctv",
            "name": "py_cctv",
            "type": 3,
            "api": "py_cctv",
            "searchable": 1,
            "quickSearch": 1,
            "filterable": 0,
            "ext": "./dr_py/py/py_cctv.py"
        },
        {"key" : "py_cctvzh","name" : "py_央视综合","type" : 3,"api" : "py_cctv","searchable" : 0,"quickSearch" : 0,"filterable" : 1,"ext" : "./dr_py/py/py_cctvzh.py"},
        {"key" : "py_cctvxw","name" : "py_央视新闻","type" : 3,"api" : "py_cctv","searchable" : 0,"quickSearch" : 0,"filterable" : 1,"ext" : "./dr_py/py/py_cctvxw.py"},
        {"key" : "py_cctvzy","name" : "py_央视综艺","type" : 3,"api" : "py_cctv","searchable" : 0,"quickSearch" : 0,"filterable" : 1,"ext" : "./dr_py/py/py_cctvzy.py"},
        {"key" : "py_cctvdy","name" : "py_央视电影","type" : 3,"api" : "py_cctv","searchable" : 0,"quickSearch" : 0,"filterable" : 1,"ext" : "./dr_py/py/py_cctvdy.py"},
        {"key" : "py_cctvty","name" : "py_央视体育","type" : 3,"api" : "py_cctv","searchable" : 0,"quickSearch" : 0,"filterable" : 1,"ext" : "./dr_py/py/py_cctvty.py"},
        {"key" : "py_cctvkj","name" : "py_央视科教","type" : 3,"api" : "py_cctv","searchable" : 0,"quickSearch" : 0,"filterable" : 1,"ext" : "./dr_py/py/py_cctvkj.py"},
        {"key" : "py_cctvyy","name" : "py_央视音乐","type" : 3,"api" : "py_cctv","searchable" : 0,"quickSearch" : 0,"filterable" : 1,"ext" : "./dr_py/py/py_cctvyy.py"},
        {"key" : "py_cctvse","name" : "py_央视少儿","type" : 3,"api" : "py_cctv","searchable" : 0,"quickSearch" : 0,"filterable" : 1,"ext" : "./dr_py/py/py_cctvse.py"},
        {"key" : "py_cctvny","name" : "py_央视农业","type" : 3,"api" : "py_cctv","searchable" : 0,"quickSearch" : 0,"filterable" : 1,"ext" : "./dr_py/py/py_cctvny.py"},
        {"key" : "py_cctvjs","name" : "py_央视军事","type" : 3,"api" : "py_cctv","searchable" : 0,"quickSearch" : 0,"filterable" : 1,"ext" : "./dr_py/py/py_cctvjs.py"},
        {"key" : "py_cctvxq","name" : "py_央视戏曲","type" : 3,"api" : "py_cctv","searchable" : 0,"quickSearch" : 0,"filterable" : 1,"ext" : "./dr_py/py/py_cctvxq.py"},
        {
            "key": "py_ali",
            "name": "py_ali(Pyramid)",
            "type": 3,
            "api": "py_ali",
            "searchable": 1,
            "quickSearch": 1,
            "filterable": 0,
            "ext": "./dr_py/py/py_ali.py"
        },
        {
            "key": "push_agent",
            "name": "📽推送",
            "type": 3,
            "api": "csp_PushAgent",
            "searchable": 0,
            "quickSearch": 0,
            "filterable": 0,
            "ext": "http://127.0.0.1:9978/file/XYQTVBox/alitoken.txt"
        },
        {
            "key": "csp_LocalFile",
            "name": "💻本地视频",
            "type": 3,
            "api": "csp_LocalFile",
            "searchable": 0,
            "quickSearch": 0,
            "filterable": 0
        }
    ],
    "parses": [
        /*{
            "name": "解析聚合",
            "type": 3,
            "url": "Demo"
        },
        {
            "name": "Json并发",
            "type": 2,
            "url": "Parallel"
        },
        {
            "name": "Json轮询",
            "type": 2,
            "url": "Sequence"
        },*/
        {
            "name": "0-热播",
            "type": 0,
            "url": "https://vcnjsfnjshfolmllxoashnbjhxck12dd65xca2cdqas1236.junniu.net/analysis.php?v="
        },
        {
            "name": "0-采妮丝",
            "type": 0,
            "url": "https://jx.cainisi.cf/?v="
        },
        {
            "name": "1-CK",
            "type": 0,
            "url": "https://www.ckmov.com/?url="
        },
        {
            "name": "2-playerjy",
            "type": 0,
            "url": "https://jx.playerjy.com/?url="
        },{
            "name": "云星",
            "type": 1,
            "url": "https://www.itvbox.cc/api.maoyingshi.cc/api.php?url=",
            "ext": {"flag": [ "qq", "腾讯", "qiyi", "爱奇艺", "奇艺","youku","优酷","mgtv", "芒果","letv", "乐视", "pptv", "PPTV","sohu","bilibili", "哔哩哔哩", "哔哩" ]}
        },
        {
            "name": "腾讯",
            "type": 1,
            "url": "http://api.playaaaa.com/qq/000167kkkk.php?url=",
            "ext": {"flag": [ "qq", "腾讯"]}
        },
        {
            "name": "可米",
            "type": 0,
            "url": "https://bf.kemi.lol/?url=",
            "ext": {
                "flag": [
                    "qq",
                    "腾讯",
                    "qiyi",
                    "爱奇艺",
                    "奇艺",
                    "youku",
                    "优酷",
                    "mgtv",
                    "芒果",
                    "letv",
                    "乐视",
                    "pptv",
                    "PPTV",
                    "sohu",
                    "bilibili",
                    "哔哩哔哩",
                    "哔哩"
                ]
            }
        },
        {
            "name": "3-小城",
            "type": 0,
            "url": "https://bf.xcds1.com/?url=",
            "ext": {
                "flag": [
                    "qq",
                    "腾讯",
                    "qiyi",
                    "爱奇艺",
                    "奇艺",
                    "youku",
                    "优酷",
                    "mgtv",
                    "芒果",
                    "letv",
                    "乐视",
                    "pptv",
                    "PPTV",
                    "sohu",
                    "bilibili",
                    "哔哩哔哩",
                    "哔哩"
                ]
            }
        },
        {
            "name": "4-parwix1",
            "type": 0,
            "url": "https://jx.bozrc.com:4433/player/?url=",
            "ext": {
                "flag": [
                    "qq",
                    "腾讯",
                    "qiyi",
                    "爱奇艺",
                    "奇艺",
                    "youku",
                    "优酷",
                    "mgtv",
                    "芒果",
                    "letv",
                    "乐视",
                    "pptv",
                    "PPTV",
                    "sohu",
                    "bilibili",
                    "哔哩哔哩",
                    "哔哩"
                ]
            }
        },
        {
            "name": "采集1",
            "type": 1,
            "url": "http://jxapi.wutao7.top/XL/?url=",
            "ext": {"flag": [ "qq", "腾讯", "qiyi", "爱奇艺", "奇艺","youku","优酷","mgtv", "芒果","letv", "乐视", "pptv", "PPTV","sohu","bilibili", "哔哩哔哩", "哔哩" ]}
        },
        {
            "name": "采集2",
            "type": 0,
            "url": "http://jxapi.wutao7.top/miui/?url=",
            "ext": {"flag": [ "qq", "腾讯", "qiyi", "爱奇艺", "奇艺","youku","优酷","mgtv", "芒果","letv", "乐视", "pptv", "PPTV","sohu","bilibili", "哔哩哔哩", "哔哩" ]}
        },
        {
            "name": "5-8090",
            "type": 0,
            "url": "https://www.8090.la/8090/?url="
        },
        {
            "name": "6-夜幕",
            "type": 0,
            "url": "https://www.yemu.xyz/?url="
        },
        {
            "name": "7-诺讯",
            "type": 0,
            "url": "https://www.nxflv.com/?url="
        }
    ],
    "flags": [
        "youku",
        "qq",
        "iqiyi",
        "qiyi",
        "letv",
        "sohu",
        "tudou",
        "pptv",
        "mgtv",
        "wasu",
        "bilibili",
        "renrenmi"
    ],
     "rules": [
    {
      "name": "量子廣告",
      "hosts": [
        "vip.lz",
        "hd.lz"
      ],
      "regex": [
        "#EXT-X-DISCONTINUITY\\r*\\n*#EXTINF:6.433333,[\\s\\S]*?#EXT-X-DISCONTINUITY",
        "#EXTINF.*?\\s+.*?1o.*?\\.ts\\s+"
      ]
    },
    {
      "name": "非凡廣告",
      "hosts": [
        "vip.ffzy",
        "hd.ffzy"
      ],
      "regex": [
        "#EXT-X-DISCONTINUITY\\r*\\n*#EXTINF:6.666667,[\\s\\S]*?#EXT-X-DISCONTINUITY",
        "#EXTINF.*?\\s+.*?1o.*?\\.ts\\s+"
      ]
    },
    {
      "name": "火山嗅探",
      "hosts": [
        "huoshan.com"
      ],
      "regex": [
        "item_id="
      ]
    },
    {
      "name": "抖音嗅探",
      "hosts": [
        "douyin.com"
      ],
      "regex": [
        "is_play_url="
      ]
    }
  ],
    "ijk": [
        {
            "group": "软解码",
            "options": [
                {
                    "category": 4,
                    "name": "opensles",
                    "value": "0"
                },
                {
                    "category": 4,
                    "name": "overlay-format",
                    "value": "842225234"
                },
                {
                    "category": 4,
                    "name": "framedrop",
                    "value": "1"
                },
                {
                    "category": 4,
                    "name": "soundtouch",
                    "value": "1"
                },
                {
                    "category": 4,
                    "name": "start-on-prepared",
                    "value": "1"
                },
                {
                    "category": 1,
                    "name": "http-detect-range-support",
                    "value": "0"
                },
                {
                    "category": 1,
                    "name": "fflags",
                    "value": "fastseek"
                },
                {
                    "category": 2,
                    "name": "skip_loop_filter",
                    "value": "48"
                },
                {
                    "category": 4,
                    "name": "reconnect",
                    "value": "1"
                },
                {
                    "category": 4,
                    "name": "enable-accurate-seek",
                    "value": "0"
                },
                {
                    "category": 4,
                    "name": "mediacodec",
                    "value": "0"
                },
                {
                    "category": 4,
                    "name": "mediacodec-auto-rotate",
                    "value": "0"
                },
                {
                    "category": 4,
                    "name": "mediacodec-handle-resolution-change",
                    "value": "0"
                },
                {
                    "category": 4,
                    "name": "mediacodec-hevc",
                    "value": "0"
                },
                {
                    "category": 1,
                    "name": "dns_cache_timeout",
                    "value": "600000000"
                }
            ]
        },
        {
            "group": "硬解码",
            "options": [
                {
                    "category": 4,
                    "name": "opensles",
                    "value": "0"
                },
                {
                    "category": 4,
                    "name": "overlay-format",
                    "value": "842225234"
                },
                {
                    "category": 4,
                    "name": "framedrop",
                    "value": "1"
                },
                {
                    "category": 4,
                    "name": "soundtouch",
                    "value": "1"
                },
                {
                    "category": 4,
                    "name": "start-on-prepared",
                    "value": "1"
                },
                {
                    "category": 1,
                    "name": "http-detect-range-support",
                    "value": "0"
                },
                {
                    "category": 1,
                    "name": "fflags",
                    "value": "fastseek"
                },
                {
                    "category": 2,
                    "name": "skip_loop_filter",
                    "value": "48"
                },
                {
                    "category": 4,
                    "name": "reconnect",
                    "value": "1"
                },
                {
                    "category": 4,
                    "name": "enable-accurate-seek",
                    "value": "0"
                },
                {
                    "category": 4,
                    "name": "mediacodec",
                    "value": "1"
                },
                {
                    "category": 4,
                    "name": "mediacodec-auto-rotate",
                    "value": "1"
                },
                {
                    "category": 4,
                    "name": "mediacodec-handle-resolution-change",
                    "value": "1"
                },
                {
                    "category": 4,
                    "name": "mediacodec-hevc",
                    "value": "1"
                },
                {
                    "category": 1,
                    "name": "dns_cache_timeout",
                    "value": "600000000"
                }
            ]
        }
    ],
    "ads": [
        "mimg.0c1q0l.cn",
        "z.yyxl.cc",
        "www.googletagmanager.com",
        "www.google-analytics.com",
        "mc.usihnbcq.cn",
        "mg.g1mm3d.cn",
        "mscs.svaeuzh.cn",
        "cnzz.hhttm.top",
        "tp.vinuxhome.com",
        "cnzz.mmstat.com",
        "www.baihuillq.com",
        "s23.cnzz.com",
        "z3.cnzz.com",
        "c.cnzz.com",
        "stj.v1vo.top",
        "z12.cnzz.com",
        "img.mosflower.cn",
        "tips.gamevvip.com",
        "ehwe.yhdtns.com",
        "xdn.cqqc3.com",
        "www.jixunkyy.cn",
        "sp.chemacid.cn",
        "hm.baidu.com",
        "s9.cnzz.com",
        "z6.cnzz.com",
        "um.cavuc.com",
        "mav.mavuz.com",
        "wofwk.aoidf3.com",
        "z5.cnzz.com",
        "xc.hubeijieshikj.cn",
        "tj.tianwenhu.com",
        "xg.gars57.cn",
        "k.jinxiuzhilv.com",
        "cdn.bootcss.com",
        "ppl.xunzhuo123.com",
        "xomk.jiangjunmh.top",
        "img.xunzhuo123.com",
        "z1.cnzz.com",
        "s13.cnzz.com",
        "xg.huataisangao.cn",
        "z7.cnzz.com",
        "xg.huataisangao.cn",
        "z2.cnzz.com",
        "s96.cnzz.com",
        "q11.cnzz.com",
        "thy.dacedsfa.cn",
        "xg.whsbpw.cn",
        "s19.cnzz.com",
        "z8.cnzz.com",
        "s4.cnzz.com",
        "f5w.as12df.top",
        "ae01.alicdn.com",
        "www.92424.cn",
        "k.wudejia.com",
        "vivovip.mmszxc.top",
        "qiu.xixiqiu.com",
        "cdnjs.hnfenxun.com",
        "cms.qdwght.com"
    ]
}
